
{
  "something": [
    "pride",
    "sound",
    "smell",
    "chair",
    "human",
    "paper",
    "bottle",
    "pokemón",
    "prison",
    "video game",
    "book",
    "boy",
    "bed",
    "clue",
    "space",
    "heart",
    "emotion",
    "desire",
    "bird"

  ],


  "isATool": [
    "nice",
    "cool",
    "awesome",
    "suspicious",
    "famous",
    "realistic",
    "alive",
    "dull",
    "stupid",
    "beatiful"
  ],

  "isCreativity":[
    "dream",
    "walk",
    "transform",
    "strip",
    "know",
    "scratch",
    "laugh"
  ],
  "creating":[
    "dreaming",
    "walking",
    "transforming",
    "stripping",
    "knowing",
    "scratching",
    "laughing",
    "running",
    "eating",
    "loving",
    "trading",
    "fighting",
    "rapping"
  ]
}
